http://localhost/consumer-service/api/v3/payments/order

payload :

{
	"type" : "go_pay",
	"merchant_key": "5cad6d9fd2944",
	"mode": "kiosk-android",
	"payload" : {
		"order_id": "001",
		"table_no": "K1",
		"total_amount": "5000",
		"currency_code": "IDR"
	}
}