http://35.247.141.209:8000/consumer-service/api/v3/payments/reversal
payload :

{
	"type" : "go_pay",
	"merchant_key": 
	"56a04d52be12e",
	"mode": "kiosk-android",
	"payload" : {
		"currency_code": "SGD",        
		"order_id": "1",        
		"table_no": "K1",        
		"total_amount": "1",        
		"txn_identifier": "72e554f56e6b770bb66927c22660c261"
	}
}
						