charge :
http://localhost/consumer-service/public/api/v3/payments/order

payload
{
	"payment_type": "gopay",
	"transaction_details": {
		"order_id": "441",
		"gross_amount": 2000
	},
	"item_details": {
		"id": "id1",
		"price": 2000,
		"quantity": 1,
		"name": "Pizza Mozarella"
	},
	"customer_details": {
		"first_name": "Budi",
		"last_name": "Utomo",
		"email": "budi.utomo@midtrans.com",
		"phone": "081223323423"
	},
	"gopay": {
		"enable_callback": false,
		"callback_url": "someapps://callback"
	}
}
                  